…
``` r
# a challenge of whats going on in the training and testing data set is that it is not a tibble but a resample
# resample is rather than storing the dataset over and over again, it just keeps track of which rows are in this sample
# it is like it is saving different rows each time but right now it is saving the row numbers that go along with this
# you can convert a resample into a dataset using as.tibble()
cv_df |> pull(train) |> nth(1) |> as_tibble()
```

    ## # A tibble: 79 × 3
    ##       id      x       y
    ##    <int>  <dbl>   <dbl>
    ##  1     1 0.266   1.11  
    ##  2     3 0.573   0.358 
    ##  3     4 0.908  -3.04  
    ##  4     5 0.202   1.33  
    ##  5     6 0.898  -1.99  
    ##  6     7 0.945  -3.27  
    ##  7     8 0.661  -0.615 
    ##  8     9 0.629   0.0878
    ##  9    10 0.0618  0.392 
    ## 10    14 0.384   0.938 
    ## # ℹ 69 more rows

``` r
cv_df |> pull(train) |> nth(2) |> as_tibble()
```

    ## # A tibble: 79 × 3
    ##       id      x       y
    ##    <int>  <dbl>   <dbl>
    ##  1     1 0.266   1.11  
    ##  2     2 0.372   0.764 
    ##  3     4 0.908  -3.04  
    ##  4     5 0.202   1.33  
    ##  5     6 0.898  -1.99  
    ##  6     7 0.945  -3.27  
    ##  7     8 0.661  -0.615 
    ##  8     9 0.629   0.0878
    ##  9    10 0.0618  0.392 
    ## 10    12 0.177   0.836 
    ## # ℹ 69 more rows

``` r
cv_df |> pull(train) |> nth(3) |> as_tibble()
```

    ## # A tibble: 79 × 3
    ##       id     x      y
    ##    <int> <dbl>  <dbl>
    ##  1     1 0.266  1.11 
    ##  2     2 0.372  0.764
    ##  3     3 0.573  0.358
    ##  4     5 0.202  1.33 
    ##  5     6 0.898 -1.99 
    ##  6     8 0.661 -0.615
    ##  7    11 0.206  1.63 
    ##  8    12 0.177  0.836
    ##  9    13 0.687 -0.291
    ## 10    14 0.384  0.938
    ## # ℹ 69 more rows
…
